^D:\VISUAL STUDIO PROJECTS\UEHOMEWORKMOD13\UEHOMEWORKMOD13\UEHOMEWORKMOD13\X64\DEBUG\UEHOMEWORKMOD13.OBJ
D:\VISUAL STUDIO PROJECTS\UEHOMEWORKMOD13\UEHOMEWORKMOD13\X64\DEBUG\UEHOMEWORKMOD13.EXE
D:\VISUAL STUDIO PROJECTS\UEHOMEWORKMOD13\UEHOMEWORKMOD13\X64\DEBUG\UEHOMEWORKMOD13.PDB
